﻿REPOSTERIA,10,REPOSTERIA
DONA  AZUCAR,10,REPOSTERIA
DONA  MOKA.,10,REPOSTERIA
DONA  DOB CHOC,12,REPOSTERIA
TRUFA,5,PASTELERO
TU  Y  YO,25,PASTELERO
PLATANERAS ,25,PASTELERO
RATÓN,6,PASTELERO
REB. PASTEL,20,PASTELERO
FANTACIA,15,FLAN Y GELATINA
VASO  FLAN  Gde.,15,FLAN Y GELATINA
VASO  FLAN  Ch.,10,FLAN Y GELATINA
ARROZ CON LECHE  Gde.,15,FLAN Y GELATINA
ARROZ CON LECHE  Ch.,10,PASTELERO
ROLLO CHOCOLATE,15,PASTELERO
REBANADA DE FLAN,15,FLAN Y GELATINA
CONCHA  RELLENA,15,PASTELERO
GELATINA  VASO  Gde.,12,FLAN Y GELATINA
GELATINA  VASO  Ch.,8,FLAN Y GELATINA
Kg.  PASTEL  3 LECHES,99,PASTELERO
Kg  PASTEL ESPECIALIDAD,120,PASTELERO
PASTESL  ESTÁNDAR   Gde.,225,PASTELERO
PASTESL  ESTÁNDAR   Ch.,135,PASTELERO
FLAN  NAPOLITANO  ,160,FLAN Y GELATINA
GELATINA GRANDE,150,FLAN Y GELATINA
PAY  DE QUESO,90,PASTELERO
ROSCA ,100,PASTELERO
ROSCA  ESPECIAL,120,PASTELERO
PANQUE.,50,PASTELERO
BARRA PASTEL  Gde.,160,PASTELERO
1/2 BARRA PASTEL  ,80,PASTELERO
BOLILLO  Y  TELERA  NORM.,1.8,FRANCESEROS
BOLILLO  Y  TELERA  MED.,1.5,FRANCESEROS
BOLILLO  Y  TELERA  BOCD.,1.2,FRANCESEROS
FIGURA,4,FRANCESEROS
COSTRA,8,FRANCESEROS
CHAPATA  NORM.,7,FRANCESEROS
GALLINA   NORM.,7,FRANCESEROS
BAGUETTE,12.5,FRANCESEROS
1/2  BAGUETTE,6,FRANCESEROS
TELERA 1 1/2,2.5,FRANCESEROS
BOZCOCHO  NORM.,7.5,BIZCOCHERO
SURTIDO,7.5,BIZCOCHERO
BIZCOCHO   Med.,6,BIZCOCHERO
BIZCOCHO   BOCAD.,5,BIZCOCHERO
PAN GRANDE.,15,BIZCOCHERO
PAN  ESPECIAL,18,BIZCOCHERO
PAN DE CAJA BLCO ,24,PAN  INDUSTRIAL
PAN DE CAJA INTEGRAL,26,PAN  INDUSTRIAL
BOLLO  NORMAL,24,PAN  INDUSTRIAL
BOLLO  INFANTIL,14,PAN  INDUSTRIAL
BOLLO  GRANDE  ,25.5,PAN  INDUSTRIAL
1/2 NOCHES NORM.,13.5,PAN  INDUSTRIAL
1/1 NOCHES  GDE  AJONJOLI,18.5,PAN  INDUSTRIAL
1/2 NOCHE  8PZ,18,PAN  INDUSTRIAL
JUMBO  BLANCO,48,PAN  INDUSTRIAL
JUMBO  INTEGRAL,52,PAN  INDUSTRIAL
TOSTADITO…,13.5,PAN  INDUSTRIAL
Kg.  PASTA.,120,VARIOS
1/2 Kg. PASTA,60,VARIOS
 PALITOS  (caja),25,VARIOS
PAN  MOLIDO Kg.,25,VARIOS
1/2 Kg  PAN  MOLIDO,12.5,VARIOS
1/4 Kg. PAN  MOLIDO,6.5,VARIOS
PAN  FRIO  bolsa,20,VARIOS
Kg. PASTA  HOJALDRE.,80,VARIOS
EMPANADAS  VARIOS,17,VARIOS
CUERNITOS c/jamón,20,VARIOS
CROISSAN c/jamón,20,VARIOS
Barritas  c/jamón,15,VARIOS
HOJALDRAS c/MOLE,15,VARIOS
CAFÉ,10,VARIOS
PIZZA  INDIVIDUAL,30,VARIOS
BOLINACHO,20,VARIOS